{"data":{"data":[{"id":"cmqbeopxw005hoib08pu0jyq2","name":"5GDeployment Planner","category":"Telecommunications","description":"Plans 5G network deployments by analyzing coverage requirements, site availability, backhaul connectivity, and equipment specifications to generate optimal site selection and configuration plans.","tools":["Coverage Modeler","Site Selector","Backhaul Planner"],"models":["gpt-4o"],"repoPath":"agents/agno/telecommunications/5gdeployment-planner.py","framework":"Agno","llm":"Gemini Pro","industry":"Telecommunications","difficulty":"advanced","language":"Python","tags":["5g","deployment","coverage","planning"],"author":"TelecommunicationsAI Labs","isCurated":true,"sourceUrl":null,"createdAt":"2026-06-12T20:55:46.773Z","updatedAt":"2026-06-12T20:55:46.773Z"},{"id":"cmqbeopz0007goib05bdykl41","name":"911Dispatch Optimizer","category":"Public Safety","description":"Optimizes 911 dispatch operations by prioritizing calls based on severity, location proximity, and available units, reducing response times through intelligent unit assignment and real-time rerouting capabilities.","tools":["Call Prioritizer","Unit Assigner","Route Optimizer"],"models":["gpt-4o"],"repoPath":"agents/llamaindex/public-safety/911dispatch-optimizer.py","framework":"LlamaIndex","llm":"Llama 3.1","industry":"Public Safety","difficulty":"intermediate","language":"Python","tags":["911","dispatch","response-time","prioritization"],"author":"Public SafetyAI Labs","isCurated":true,"sourceUrl":null,"createdAt":"2026-06-12T20:55:46.812Z","updatedAt":"2026-06-12T20:55:46.812Z"},{"id":"cmq9rn2nf000sl7i24zl8pni0","name":"A/B Test Analyzer","category":"Data Analytics","description":"Analyzes A/B test results with proper statistical methods, determining significance and recommending next actions.","tools":["Stats Engine","Experiment API","Report Generator"],"models":["gemini-pro","gpt-4o"],"repoPath":"agents/llamaindex/data-analytics/ab-test-analyzer.py","framework":"Agno","llm":"Llama 3.1","industry":"Data Analytics","difficulty":"intermediate","language":"Python","tags":["ab-testing","statistics","experimentation","significance"],"author":"TestSignal","isCurated":true,"sourceUrl":null,"createdAt":"2026-06-11T17:22:52.586Z","updatedAt":"2026-06-11T17:22:52.586Z"},{"id":"cmqbezgb1000ooidd6j7vp4l3","name":"ABTestAnalyzer Agent","category":"Data Analytics","description":"Analyzes A/B test results with statistical rigor by calculating effect sizes, confidence intervals, and Bayesian posterior probabilities, recommending decisions with quantified uncertainty for product experimentation.","tools":["Bayesian Engine","Effect Calculator","Decision Recommender"],"models":["gpt-4o"],"repoPath":"agents/llamaindex/data-analytics/abtestanalyzer-agent.py","framework":"LlamaIndex","llm":"GPT-4o","industry":"Data Analytics","difficulty":"intermediate","language":"Python","tags":["ab-testing","bayesian","experimentation","decision"],"author":"Data AnalyticsAI Labs","isCurated":true,"sourceUrl":null,"createdAt":"2026-06-12T21:04:07.502Z","updatedAt":"2026-06-12T21:04:07.502Z"},{"id":"cmqbex9kz0052oic3dq0a3loz","name":"ABTesting Analyst","category":"Marketing","description":"Analyzes A/B test results by calculating statistical significance, segmenting performance by audience characteristics, and recommending winning variants with confidence intervals for data-driven marketing decisions.","tools":["Significance Calculator","Segment Analyzer","Variant Recommender"],"models":["gpt-4o"],"repoPath":"agents/autogen/marketing/abtesting-analyst.py","framework":"AutoGen","llm":"Claude 3.5 Sonnet","industry":"Marketing","difficulty":"intermediate","language":"Python","tags":["ab-testing","significance","segmentation","decision"],"author":"MarketingAI Labs","isCurated":true,"sourceUrl":null,"createdAt":"2026-06-12T21:02:25.476Z","updatedAt":"2026-06-12T21:02:25.476Z"},{"id":"cmq9rn2ng002kl7i2h6vkuhbt","name":"APIDoc Generator","category":"Software Development","description":"Generates comprehensive API documentation from code annotations, OpenAPI specs, and test endpoints.","tools":["OpenAPI Parser","Code Analyzer","Doc Formatter"],"models":["gpt-4"],"repoPath":"agents/crewai/software-development/apidoc-generator.py","framework":"AutoGen","llm":"Claude 3.5 Sonnet","industry":"Software Development","difficulty":"intermediate","language":"Python","tags":["API-documentation","OpenAPI","code-analysis","auto-docs"],"author":"DocForge","isCurated":true,"sourceUrl":null,"createdAt":"2026-06-11T17:22:52.586Z","updatedAt":"2026-06-11T17:22:52.586Z"},{"id":"cmqbezgah0000oidd0u9avz0k","name":"APIGateway Designer","category":"Software Development","description":"Designs API gateway configurations by analyzing service architectures, authentication requirements, and rate limiting policies to generate optimized gateway rules that balance security with developer experience.","tools":["Gateway SDK","Auth Configurator","Rate Limit Calculator"],"models":["gpt-4o"],"repoPath":"agents/langgraph/software-development/apigateway-designer.py","framework":"LangGraph","llm":"GPT-4o","industry":"Software Development","difficulty":"intermediate","language":"Python","tags":["api-gateway","authentication","rate-limiting","microservices"],"author":"Software DevelopmentAI Labs","isCurated":true,"sourceUrl":null,"createdAt":"2026-06-12T21:04:07.481Z","updatedAt":"2026-06-12T21:04:07.481Z"},{"id":"cmqbeopug000poib07hi2b92z","name":"APISpec Generator","category":"Code Generation","description":"Automatically generates OpenAPI specifications and corresponding server stubs from natural language API descriptions, ensuring RESTful best practices and consistent endpoint documentation across microservices.","tools":["OpenAPI Parser","Swagger UI","Code Generator"],"models":["gpt-4o"],"repoPath":"agents/crewai/code-generation/apispec-generator.py","framework":"CrewAI","llm":"GPT-4","industry":"Code Generation","difficulty":"intermediate","language":"Python","tags":["api","openapi","rest","specification"],"author":"Code GenerationAI Labs","isCurated":true,"sourceUrl":null,"createdAt":"2026-06-12T20:55:46.649Z","updatedAt":"2026-06-12T20:55:46.649Z"},{"id":"cmqbeopul000woib05rshki79","name":"Accessibility Linter","category":"Code Generation","description":"Scans generated UI code for WCAG compliance violations, automatically suggesting and applying fixes for missing ARIA labels, keyboard navigation gaps, color contrast issues, and semantic HTML improvements.","tools":["AXE Engine","ARIA Validator","Contrast Checker"],"models":["gpt-4o"],"repoPath":"agents/agno/code-generation/accessibility-linter.py","framework":"Agno","llm":"Claude 3.5 Sonnet","industry":"Code Generation","difficulty":"beginner","language":"Python","tags":["accessibility","wcag","aria","a11y"],"author":"Code GenerationAI Labs","isCurated":true,"sourceUrl":null,"createdAt":"2026-06-12T20:55:46.653Z","updatedAt":"2026-06-12T20:55:46.653Z"},{"id":"cmqbex9jw0036oic38ddt26x1","name":"AccessibilityAdapter Agent","category":"Education","description":"Adapts educational content for accessibility by generating alternative text, captioning media, restructuring documents for screen readers, and ensuring WCAG compliance for inclusive learning experiences.","tools":["Alt Text Generator","Captioning Engine","WCAG Validator"],"models":["gpt-4o"],"repoPath":"agents/llamaindex/education/accessibilityadapter-agent.py","framework":"LlamaIndex","llm":"GPT-4o","industry":"Education","difficulty":"intermediate","language":"Python","tags":["accessibility","wcag","inclusive","adaptation"],"author":"EducationAI Labs","isCurated":true,"sourceUrl":null,"createdAt":"2026-06-12T21:02:25.436Z","updatedAt":"2026-06-12T21:02:25.436Z"},{"id":"cmqbeopwu003toib022lcfo0n","name":"ActuarialModel Assistant","category":"Insurance","description":"Assists actuaries in developing and validating pricing models by automating data preparation, experience analysis, trend projection, and credibility blending while maintaining auditable model documentation.","tools":["Experience Analyzer","Trend Projector","Credibility Blender"],"models":["gpt-4o"],"repoPath":"agents/agno/insurance/actuarialmodel-assistant.py","framework":"Agno","llm":"Gemini Pro","industry":"Insurance","difficulty":"advanced","language":"Python","tags":["actuarial","pricing","modeling","experience"],"author":"InsuranceAI Labs","isCurated":true,"sourceUrl":null,"createdAt":"2026-06-12T20:55:46.734Z","updatedAt":"2026-06-12T20:55:46.734Z"},{"id":"kb-fw-adaptive-rag","name":"Adaptive RAG","category":"Research","description":"Dynamic retrieval adjusting based on query complexity","tools":[],"models":[],"repoPath":"README.md","framework":"LangGraph","llm":null,"industry":"Information Retrieval","difficulty":null,"language":null,"tags":["langgraph","information retrieval"],"author":null,"isCurated":true,"sourceUrl":null,"createdAt":"2026-06-10T22:07:29.958Z","updatedAt":"2026-06-11T17:24:53.399Z"},{"id":"kb-fw-adaptive-rag-local","name":"Adaptive RAG Local","category":"Research","description":"Adaptive RAG with local models for offline use","tools":[],"models":[],"repoPath":"README.md","framework":"LangGraph","llm":null,"industry":"Information Retrieval","difficulty":null,"language":null,"tags":["langgraph","information retrieval"],"author":null,"isCurated":true,"sourceUrl":null,"createdAt":"2026-06-10T22:07:29.960Z","updatedAt":"2026-06-11T17:24:53.399Z"},{"id":"cmqbex9jr002xoic3qs18ffms","name":"AdaptiveLearning Agent","category":"Education","description":"Creates adaptive learning experiences by assessing student knowledge levels, learning styles, and progress patterns to personalize content difficulty, pacing, and instructional strategies for optimal learning outcomes.","tools":["Assessment Engine","Style Detector","Content Adapter"],"models":["gpt-4o"],"repoPath":"agents/langgraph/education/adaptivelearning-agent.py","framework":"LangGraph","llm":"Claude 3 Opus","industry":"Education","difficulty":"intermediate","language":"Python","tags":["adaptive-learning","personalization","assessment","pacing"],"author":"EducationAI Labs","isCurated":true,"sourceUrl":null,"createdAt":"2026-06-12T21:02:25.431Z","updatedAt":"2026-06-12T21:02:25.431Z"},{"id":"cmq9rn2ng0013l7i2mrhyzwn6","name":"AdaptiveTutor Agent","category":"Education","description":"Creates personalized learning paths that adapt in real-time based on student performance, knowledge gaps, and learning style.","tools":["LMS Connector","Knowledge Graph","Quiz Generator"],"models":["gpt-4o","claude-3.5-sonnet"],"repoPath":"agents/langgraph/education/adaptive-tutor.py","framework":"LlamaIndex","llm":"Claude 3 Opus","industry":"Education","difficulty":"advanced","language":"Python","tags":["adaptive-learning","tutoring","knowledge-graph","personalization"],"author":"LearnPath AI","isCurated":true,"sourceUrl":null,"createdAt":"2026-06-11T17:22:52.586Z","updatedAt":"2026-06-11T17:22:52.586Z"},{"id":"cmqbeopya0066oib0yc3k80bz","name":"AeroStructural Analyzer","category":"Aerospace","description":"Analyzes aerospace structural integrity by modeling stress distributions, fatigue accumulation, and damage tolerance for airframes under dynamic loading, predicting remaining useful life and inspection intervals.","tools":["FEA Interface","Fatigue Modeler","NDI Scheduler"],"models":["gpt-4o"],"repoPath":"agents/agno/aerospace/aerostructural-analyzer.py","framework":"Agno","llm":"GPT-4o","industry":"Aerospace","difficulty":"advanced","language":"Python","tags":["structural","fatigue","fea","damage-tolerance"],"author":"AerospaceAI Labs","isCurated":true,"sourceUrl":null,"createdAt":"2026-06-12T20:55:46.787Z","updatedAt":"2026-06-12T20:55:46.787Z"},{"id":"kb-fw-agent-chat-with-whisper","name":"Agent Chat with Whisper","category":"Media","description":"AI agent for transcription and translation using Whisper","tools":[],"models":[],"repoPath":"README.md","framework":"AutoGen","llm":null,"industry":"Audio Processing","difficulty":null,"language":null,"tags":["autogen","audio processing"],"author":null,"isCurated":true,"sourceUrl":null,"createdAt":"2026-06-10T22:07:29.932Z","updatedAt":"2026-06-11T17:24:53.411Z"},{"id":"kb-fw-agenteval-multi-agent-assessment-system","name":"AgentEval Multi-Agent Assessment System","category":"Business","description":"Evaluating LLM-based application utility","tools":[],"models":[],"repoPath":"README.md","framework":"AutoGen","llm":null,"industry":"Performance Evaluation","difficulty":null,"language":null,"tags":["autogen","performance evaluation"],"author":null,"isCurated":true,"sourceUrl":null,"createdAt":"2026-06-10T22:07:29.936Z","updatedAt":"2026-06-11T17:24:53.427Z"},{"id":"cmqbex9jh002hoic35ab1wobm","name":"AgentPerformance Coach","category":"Customer Service","description":"Coaches customer service agents by analyzing interaction quality scores, identifying skill gaps, and recommending targeted training modules that improve resolution rates and customer satisfaction over time.","tools":["Quality Scorer","Gap Identifier","Training Recommender"],"models":["gpt-4o"],"repoPath":"agents/llamaindex/customer-service/agentperformance-coach.py","framework":"LlamaIndex","llm":"Gemini Pro","industry":"Customer Service","difficulty":"beginner","language":"Python","tags":["agent-coaching","quality","training","performance"],"author":"Customer ServiceAI Labs","isCurated":true,"sourceUrl":null,"createdAt":"2026-06-12T21:02:25.421Z","updatedAt":"2026-06-12T21:02:25.421Z"},{"id":"kb-fw-agentic-rag","name":"Agentic RAG","category":"General","description":"Agent determines best retrieval strategy before generating response","tools":[],"models":[],"repoPath":"README.md","framework":"LangGraph","llm":null,"industry":"Intelligent Agents","difficulty":null,"language":null,"tags":["langgraph","intelligent agents"],"author":null,"isCurated":true,"sourceUrl":null,"createdAt":"2026-06-10T22:07:29.958Z","updatedAt":"2026-06-11T17:24:53.421Z"}],"total":808,"page":1,"pageSize":20,"hasMore":true},"timestamp":1781321085686}