{"data":{"data":[{"id":"cmqbeopxw005hoib08pu0jyq2","name":"5GDeployment Planner","category":"Telecommunications","description":"Plans 5G network deployments by analyzing coverage requirements, site availability, backhaul connectivity, and equipment specifications to generate optimal site selection and configuration plans.","tools":["Coverage Modeler","Site Selector","Backhaul Planner"],"models":["gpt-4o"],"repoPath":"agents/agno/telecommunications/5gdeployment-planner.py","framework":"Agno","llm":"Gemini Pro","industry":"Telecommunications","difficulty":"advanced","language":"Python","tags":["5g","deployment","coverage","planning"],"author":"TelecommunicationsAI Labs","isCurated":true,"sourceUrl":null,"createdAt":"2026-06-12T20:55:46.773Z","updatedAt":"2026-06-12T20:55:46.773Z"},{"id":"cmqbeopz0007goib05bdykl41","name":"911Dispatch Optimizer","category":"Public Safety","description":"Optimizes 911 dispatch operations by prioritizing calls based on severity, location proximity, and available units, reducing response times through intelligent unit assignment and real-time rerouting capabilities.","tools":["Call Prioritizer","Unit Assigner","Route Optimizer"],"models":["gpt-4o"],"repoPath":"agents/llamaindex/public-safety/911dispatch-optimizer.py","framework":"LlamaIndex","llm":"Llama 3.1","industry":"Public Safety","difficulty":"intermediate","language":"Python","tags":["911","dispatch","response-time","prioritization"],"author":"Public SafetyAI Labs","isCurated":true,"sourceUrl":null,"createdAt":"2026-06-12T20:55:46.812Z","updatedAt":"2026-06-12T20:55:46.812Z"},{"id":"cmq9rn2nf000sl7i24zl8pni0","name":"A/B Test Analyzer","category":"Data Analytics","description":"Analyzes A/B test results with proper statistical methods, determining significance and recommending next actions.","tools":["Stats Engine","Experiment API","Report Generator"],"models":["gemini-pro","gpt-4o"],"repoPath":"agents/llamaindex/data-analytics/ab-test-analyzer.py","framework":"Agno","llm":"Llama 3.1","industry":"Data Analytics","difficulty":"intermediate","language":"Python","tags":["ab-testing","statistics","experimentation","significance"],"author":"TestSignal","isCurated":true,"sourceUrl":null,"createdAt":"2026-06-11T17:22:52.586Z","updatedAt":"2026-06-11T17:22:52.586Z"},{"id":"cmqbezgb1000ooidd6j7vp4l3","name":"ABTestAnalyzer Agent","category":"Data Analytics","description":"Analyzes A/B test results with statistical rigor by calculating effect sizes, confidence intervals, and Bayesian posterior probabilities, recommending decisions with quantified uncertainty for product experimentation.","tools":["Bayesian Engine","Effect Calculator","Decision Recommender"],"models":["gpt-4o"],"repoPath":"agents/llamaindex/data-analytics/abtestanalyzer-agent.py","framework":"LlamaIndex","llm":"GPT-4o","industry":"Data Analytics","difficulty":"intermediate","language":"Python","tags":["ab-testing","bayesian","experimentation","decision"],"author":"Data AnalyticsAI Labs","isCurated":true,"sourceUrl":null,"createdAt":"2026-06-12T21:04:07.502Z","updatedAt":"2026-06-12T21:04:07.502Z"},{"id":"cmqbex9kz0052oic3dq0a3loz","name":"ABTesting Analyst","category":"Marketing","description":"Analyzes A/B test results by calculating statistical significance, segmenting performance by audience characteristics, and recommending winning variants with confidence intervals for data-driven marketing decisions.","tools":["Significance Calculator","Segment Analyzer","Variant Recommender"],"models":["gpt-4o"],"repoPath":"agents/autogen/marketing/abtesting-analyst.py","framework":"AutoGen","llm":"Claude 3.5 Sonnet","industry":"Marketing","difficulty":"intermediate","language":"Python","tags":["ab-testing","significance","segmentation","decision"],"author":"MarketingAI Labs","isCurated":true,"sourceUrl":null,"createdAt":"2026-06-12T21:02:25.476Z","updatedAt":"2026-06-12T21:02:25.476Z"},{"id":"cmq9rn2ng002kl7i2h6vkuhbt","name":"APIDoc Generator","category":"Software Development","description":"Generates comprehensive API documentation from code annotations, OpenAPI specs, and test endpoints.","tools":["OpenAPI Parser","Code Analyzer","Doc Formatter"],"models":["gpt-4"],"repoPath":"agents/crewai/software-development/apidoc-generator.py","framework":"AutoGen","llm":"Claude 3.5 Sonnet","industry":"Software Development","difficulty":"intermediate","language":"Python","tags":["API-documentation","OpenAPI","code-analysis","auto-docs"],"author":"DocForge","isCurated":true,"sourceUrl":null,"createdAt":"2026-06-11T17:22:52.586Z","updatedAt":"2026-06-11T17:22:52.586Z"},{"id":"cmqbezgah0000oidd0u9avz0k","name":"APIGateway Designer","category":"Software Development","description":"Designs API gateway configurations by analyzing service architectures, authentication requirements, and rate limiting policies to generate optimized gateway rules that balance security with developer experience.","tools":["Gateway SDK","Auth Configurator","Rate Limit Calculator"],"models":["gpt-4o"],"repoPath":"agents/langgraph/software-development/apigateway-designer.py","framework":"LangGraph","llm":"GPT-4o","industry":"Software Development","difficulty":"intermediate","language":"Python","tags":["api-gateway","authentication","rate-limiting","microservices"],"author":"Software DevelopmentAI Labs","isCurated":true,"sourceUrl":null,"createdAt":"2026-06-12T21:04:07.481Z","updatedAt":"2026-06-12T21:04:07.481Z"},{"id":"cmqbeopug000poib07hi2b92z","name":"APISpec Generator","category":"Code Generation","description":"Automatically generates OpenAPI specifications and corresponding server stubs from natural language API descriptions, ensuring RESTful best practices and consistent endpoint documentation across microservices.","tools":["OpenAPI Parser","Swagger UI","Code Generator"],"models":["gpt-4o"],"repoPath":"agents/crewai/code-generation/apispec-generator.py","framework":"CrewAI","llm":"GPT-4","industry":"Code Generation","difficulty":"intermediate","language":"Python","tags":["api","openapi","rest","specification"],"author":"Code GenerationAI Labs","isCurated":true,"sourceUrl":null,"createdAt":"2026-06-12T20:55:46.649Z","updatedAt":"2026-06-12T20:55:46.649Z"}],"total":808,"page":1,"pageSize":8,"hasMore":true},"timestamp":1781529965473}