{"data":{"data":[{"id":"cmqbeopxw005hoib08pu0jyq2","name":"5GDeployment Planner","category":"Telecommunications","description":"Plans 5G network deployments by analyzing coverage requirements, site availability, backhaul connectivity, and equipment specifications to generate optimal site selection and configuration plans.","tools":["Coverage Modeler","Site Selector","Backhaul Planner"],"models":["gpt-4o"],"repoPath":"agents/agno/telecommunications/5gdeployment-planner.py","framework":"Agno","llm":"Gemini Pro","industry":"Telecommunications","difficulty":"advanced","language":"Python","tags":["5g","deployment","coverage","planning"],"author":"TelecommunicationsAI Labs","isCurated":true,"sourceUrl":null,"createdAt":"2026-06-12T20:55:46.773Z","updatedAt":"2026-06-12T20:55:46.773Z"},{"id":"cmqbeopz0007goib05bdykl41","name":"911Dispatch Optimizer","category":"Public Safety","description":"Optimizes 911 dispatch operations by prioritizing calls based on severity, location proximity, and available units, reducing response times through intelligent unit assignment and real-time rerouting capabilities.","tools":["Call Prioritizer","Unit Assigner","Route Optimizer"],"models":["gpt-4o"],"repoPath":"agents/llamaindex/public-safety/911dispatch-optimizer.py","framework":"LlamaIndex","llm":"Llama 3.1","industry":"Public Safety","difficulty":"intermediate","language":"Python","tags":["911","dispatch","response-time","prioritization"],"author":"Public SafetyAI Labs","isCurated":true,"sourceUrl":null,"createdAt":"2026-06-12T20:55:46.812Z","updatedAt":"2026-06-12T20:55:46.812Z"},{"id":"cmq9rn2nf000sl7i24zl8pni0","name":"A/B Test Analyzer","category":"Data Analytics","description":"Analyzes A/B test results with proper statistical methods, determining significance and recommending next actions.","tools":["Stats Engine","Experiment API","Report Generator"],"models":["gemini-pro","gpt-4o"],"repoPath":"agents/llamaindex/data-analytics/ab-test-analyzer.py","framework":"Agno","llm":"Llama 3.1","industry":"Data Analytics","difficulty":"intermediate","language":"Python","tags":["ab-testing","statistics","experimentation","significance"],"author":"TestSignal","isCurated":true,"sourceUrl":null,"createdAt":"2026-06-11T17:22:52.586Z","updatedAt":"2026-06-11T17:22:52.586Z"},{"id":"cmqbezgb1000ooidd6j7vp4l3","name":"ABTestAnalyzer Agent","category":"Data Analytics","description":"Analyzes A/B test results with statistical rigor by calculating effect sizes, confidence intervals, and Bayesian posterior probabilities, recommending decisions with quantified uncertainty for product experimentation.","tools":["Bayesian Engine","Effect Calculator","Decision Recommender"],"models":["gpt-4o"],"repoPath":"agents/llamaindex/data-analytics/abtestanalyzer-agent.py","framework":"LlamaIndex","llm":"GPT-4o","industry":"Data Analytics","difficulty":"intermediate","language":"Python","tags":["ab-testing","bayesian","experimentation","decision"],"author":"Data AnalyticsAI Labs","isCurated":true,"sourceUrl":null,"createdAt":"2026-06-12T21:04:07.502Z","updatedAt":"2026-06-12T21:04:07.502Z"}],"total":808,"page":1,"pageSize":4,"hasMore":true},"timestamp":1781351461412}